[
{"runnumber": 362618, "start_time": "2022-11-24T12:44:45Z", "end_time": "2022-11-24T14:35:10Z", "lumisection": 1, "pileup": 54.304729, "rate": 1874.5702365303528, "events": 43697, "prescale": 13781, "prescale_l1": 13781, "prescale_hlt": 1, "events_l1_postdt": 43697},
{"runnumber": 362618, "start_time": "2022-11-24T12:44:45Z", "end_time": "2022-11-24T14:35:10Z", "lumisection": 2, "pileup": 54.313496, "rate": 1865.3468893702725, "events": 43482, "prescale": 13781, "prescale_l1": 13781, "prescale_hlt": 1, "events_l1_postdt": 43482},
{"runnumber": 362618, "start_time": "2022-11-24T12:44:45Z", "end_time": "2022-11-24T14:35:10Z", "lumisection": 3, "pileup": 54.304382, "rate": 1849.0880587950612, "events": 43103, "prescale": 13781, "prescale_l1": 13781, "prescale_hlt": 1, "events_l1_postdt": 43103},
{"runnumber": 362618, "start_time": "2022-11-24T12:44:45Z", "end_time": "2022-11-24T14:35:10Z", "lumisection": 4, "pileup": 54.293313, "rate": 1862.6442341559236, "events": 43419, "prescale": 13781, "prescale_l1": 13781, "prescale_hlt": 1, "events_l1_postdt": 43419},
{"runnumber": 362618, "start_time": "2022-11-24T12:44:45Z", "end_time": "2022-11-24T14:35:10Z", "lumisection": 5, "pileup": 54.288259, "rate": 1502.2902055760444, "events": 35019, "prescale": 13781, "prescale_l1": 13781, "prescale_hlt": 1, "events_l1_postdt": 35019},
{"runnumber": 362618, "start_time": "2022-11-24T12:44:45Z", "end_time": "2022-11-24T14:35:10Z", "lumisection": 6, "pileup": 54.261022, "rate": 1866.6767673328884, "events": 43513, "prescale": 13781, "prescale_l1": 13781, "prescale_hlt": 1, "events_l1_postdt": 43513},
{"runnumber": 362618, "start_time": "2022-11-24T12:44:45Z", "end_time": "2022-11-24T14:35:10Z", "lumisection": 7, "pileup": 54.241837, "rate": 1870.0229118839877, "events": 43591, "prescale": 13781, "prescale_l1": 13781, "prescale_hlt": 1, "events_l1_postdt": 43591},
{"runnumber": 362618, "start_time": "2022-11-24T12:44:45Z", "end_time": "2022-11-24T14:35:10Z", "lumisection": 8, "pileup": 54.205868, "rate": 1926.9073692526683, "events": 44917, "prescale": 13781, "prescale_l1": 13781, "prescale_hlt": 1, "events_l1_postdt": 44917},
{"runnumber": 362618, "start_time": "2022-11-24T12:44:45Z", "end_time": "2022-11-24T14:35:10Z", "lumisection": 9, "pileup": 54.175788, "rate": 1947.7135244742444, "events": 45402, "prescale": 13781, "prescale_l1": 13781, "prescale_hlt": 1, "events_l1_postdt": 45402},
{"runnumber": 362618, "start_time": "2022-11-24T12:44:45Z", "end_time": "2022-11-24T14:35:10Z", "lumisection": 10, "pileup": 54.145321, "rate": 1892.201844357297, "events": 44108, "prescale": 13781, "prescale_l1": 13781, "prescale_hlt": 1, "events_l1_postdt": 44108},
{"runnumber": 362618, "start_time": "2022-11-24T12:44:45Z", "end_time": "2022-11-24T14:35:10Z", "lumisection": 11, "pileup": 54.139913, "rate": 1531.1614271515516, "events": 35692, "prescale": 13781, "prescale_l1": 13781, "prescale_hlt": 1, "events_l1_postdt": 35692},
{"runnumber": 362618, "start_time": "2022-11-24T12:44:45Z", "end_time": "2022-11-24T14:35:10Z", "lumisection": 12, "pileup": 54.122587, "rate": 1949.3007981715612, "events": 45439, "prescale": 13781, "prescale_l1": 13781, "prescale_hlt": 1, "events_l1_postdt": 45439},
{"runnumber": 362618, "start_time": "2022-11-24T12:44:45Z", "end_time": "2022-11-24T14:35:10Z", "lumisection": 13, "pileup": 54.079474, "rate": 1942.351113334663, "events": 45277, "prescale": 13781, "prescale_l1": 13781, "prescale_hlt": 1, "events_l1_postdt": 45277},
{"runnumber": 362618, "start_time": "2022-11-24T12:44:45Z", "end_time": "2022-11-24T14:35:10Z", "lumisection": 14, "pileup": 54.050175, "rate": 1951.2312661818098, "events": 45484, "prescale": 13781, "prescale_l1": 13781, "prescale_hlt": 1, "events_l1_postdt": 45484},
{"runnumber": 362618, "start_time": "2022-11-24T12:44:45Z", "end_time": "2022-11-24T14:35:10Z", "lumisection": 15, "pileup": 54.039606, "rate": 1951.4028633382768, "events": 45488, "prescale": 13781, "prescale_l1": 13781, "prescale_hlt": 1, "events_l1_postdt": 45488},
{"runnumber": 362618, "start_time": "2022-11-24T12:44:45Z", "end_time": "2022-11-24T14:35:10Z", "lumisection": 16, "pileup": 54.013013, "rate": 1350.9415135724953, "events": 31491, "prescale": 13781, "prescale_l1": 13781, "prescale_hlt": 1, "events_l1_postdt": 31491},
{"runnumber": 362618, "start_time": "2022-11-24T12:44:45Z", "end_time": "2022-11-24T14:35:10Z", "lumisection": 17, "pileup": 53.984729, "rate": 1942.6943076475964, "events": 45285, "prescale": 13781, "prescale_l1": 13781, "prescale_hlt": 1, "events_l1_postdt": 45285},
{"runnumber": 362618, "start_time": "2022-11-24T12:44:45Z", "end_time": "2022-11-24T14:35:10Z", "lumisection": 18, "pileup": 53.964332, "rate": 1941.793422576147, "events": 45264, "prescale": 13781, "prescale_l1": 13781, "prescale_hlt": 1, "events_l1_postdt": 45264},
{"runnumber": 362618, "start_time": "2022-11-24T12:44:45Z", "end_time": "2022-11-24T14:35:10Z", "lumisection": 19, "pileup": 53.936517, "rate": 1952.0463526750266, "events": 45503, "prescale": 13781, "prescale_l1": 13781, "prescale_hlt": 1, "events_l1_postdt": 45503},
{"runnumber": 362618, "start_time": "2022-11-24T12:44:45Z", "end_time": "2022-11-24T14:35:10Z", "lumisection": 20, "pileup": 53.920523, "rate": 1943.7667898755124, "events": 45310, "prescale": 13781, "prescale_l1": 13781, "prescale_hlt": 1, "events_l1_postdt": 45310.0},
{"runnumber": 362618, "start_time": "2022-11-24T12:44:45Z", "end_time": "2022-11-24T14:35:10Z", "lumisection": 21, "pileup": 53.873923, "rate": 1949.2149995933278, "events": 45437, "prescale": 13781, "prescale_l1": 13781, "prescale_hlt": 1, "events_l1_postdt": 45437},
{"runnumber": 362618, "start_time": "2022-11-24T12:44:45Z", "end_time": "2022-11-24T14:35:10Z", "lumisection": 22, "pileup": 53.796754, "rate": 1918.3704107184544, "events": 44718, "prescale": 13781, "prescale_l1": 13781, "prescale_hlt": 1, "events_l1_postdt": 44718},
{"runnumber": 362618, "start_time": "2022-11-24T12:44:45Z", "end_time": "2022-11-24T14:35:10Z", "lumisection": 23, "pileup": 53.738037, "rate": 1938.7046737597475, "events": 45192, "prescale": 13781, "prescale_l1": 13781, "prescale_hlt": 1, "events_l1_postdt": 45192},
{"runnumber": 362618, "start_time": "2022-11-24T12:44:45Z", "end_time": "2022-11-24T14:35:10Z", "lumisection": 24, "pileup": 53.698886, "rate": 1932.8274711507665, "events": 45055, "prescale": 13781, "prescale_l1": 13781, "prescale_hlt": 1, "events_l1_postdt": 45055},
{"runnumber": 362618, "start_time": "2022-11-24T12:44:45Z", "end_time": "2022-11-24T14:35:10Z", "lumisection": 25, "pileup": 53.657026, "rate": 1946.0404521986952, "events": 45363, "prescale": 13781, "prescale_l1": 13781, "prescale_hlt": 1, "events_l1_postdt": 45363},
{"runnumber": 362618, "start_time": "2022-11-24T12:44:45Z", "end_time": "2022-11-24T14:35:10Z", "lumisection": 26, "pileup": 53.607596, "rate": 1944.1957827666793, "events": 45320, "prescale": 13781, "prescale_l1": 13781, "prescale_hlt": 1, "events_l1_postdt": 45320.0},
{"runnumber": 362618, "start_time": "2022-11-24T12:44:45Z", "end_time": "2022-11-24T14:35:10Z", "lumisection": 27, "pileup": 53.559287, "rate": 1946.5123443789785, "events": 45374, "prescale": 13781, "prescale_l1": 13781, "prescale_hlt": 1, "events_l1_postdt": 45374},
{"runnumber": 362618, "start_time": "2022-11-24T12:44:45Z", "end_time": "2022-11-24T14:35:10Z", "lumisection": 28, "pileup": 53.495124, "rate": 1590.5340432889984, "events": 37076, "prescale": 13781, "prescale_l1": 13781, "prescale_hlt": 1, "events_l1_postdt": 37076}
]
